{
  "response": {
    "status": "ok",
    "userTier": "developer",
    "total": 2052861,
    "startIndex": 1,
    "pageSize": 10,
    "currentPage": 1,
    "pages": 205287,
    "orderBy": "newest",
    "results": [
      {
        "id": "world/2018/aug/07/china-bans-winnie-the-pooh-film-to-stop-comparisons-to-president-xi",
        "type": "article",
        "sectionId": "world",
        "sectionName": "World news",
        "webPublicationDate": "2018-08-07T02:11:02Z",
        "webTitle": "China bans Winnie the Pooh film after comparisons to President Xi",
        "webUrl": "https://www.theguardian.com/world/2018/aug/07/china-bans-winnie-the-pooh-film-to-stop-comparisons-to-president-xi",
        "apiUrl": "https://content.guardianapis.com/world/2018/aug/07/china-bans-winnie-the-pooh-film-to-stop-comparisons-to-president-xi",
        "isHosted": false,
        "pillarId": "pillar/news",
        "pillarName": "News"
      },
      {
        "id": "world/2018/aug/07/as-australias-population-hits-25m-regions-cry-out-for-skilled-migrants",
        "type": "article",
        "sectionId": "world",
        "sectionName": "World news",
        "webPublicationDate": "2018-08-07T01:59:18Z",
        "webTitle": "As Australia's population hits 25m, regions cry out for skilled migrants",
        "webUrl": "https://www.theguardian.com/world/2018/aug/07/as-australias-population-hits-25m-regions-cry-out-for-skilled-migrants",
        "apiUrl": "https://content.guardianapis.com/world/2018/aug/07/as-australias-population-hits-25m-regions-cry-out-for-skilled-migrants",
        "isHosted": false,
        "pillarId": "pillar/news",
        "pillarName": "News"
      },
      {
        "id": "environment/2018/aug/07/labor-calls-reef-foundation-return-444m-grant",
        "type": "article",
        "sectionId": "environment",
        "sectionName": "Environment",
        "webPublicationDate": "2018-08-07T01:31:33Z",
        "webTitle": "Labor calls for reef foundation to return $444m grant",
        "webUrl": "https://www.theguardian.com/environment/2018/aug/07/labor-calls-reef-foundation-return-444m-grant",
        "apiUrl": "https://content.guardianapis.com/environment/2018/aug/07/labor-calls-reef-foundation-return-444m-grant",
        "isHosted": false,
        "pillarId": "pillar/news",
        "pillarName": "News"
      },
      {
        "id": "sport/2018/aug/07/susan-alberti-hits-out-at-afls-disgusting-handling-of-womens-competition",
        "type": "article",
        "sectionId": "sport",
        "sectionName": "Sport",
        "webPublicationDate": "2018-08-07T01:21:35Z",
        "webTitle": "Susan Alberti hits out at AFL's 'disgusting' handling of women's competition",
        "webUrl": "https://www.theguardian.com/sport/2018/aug/07/susan-alberti-hits-out-at-afls-disgusting-handling-of-womens-competition",
        "apiUrl": "https://content.guardianapis.com/sport/2018/aug/07/susan-alberti-hits-out-at-afls-disgusting-handling-of-womens-competition",
        "isHosted": false,
        "pillarId": "pillar/sport",
        "pillarName": "Sport"
      },
      {
        "id": "australia-news/2018/aug/07/peter-dutton-greens-to-run-oxford-educated-lawyer-against-home-affairs-minister",
        "type": "article",
        "sectionId": "australia-news",
        "sectionName": "Australia news",
        "webPublicationDate": "2018-08-07T01:07:55Z",
        "webTitle": "Greens to run Oxford-educated lawyer against Peter Dutton",
        "webUrl": "https://www.theguardian.com/australia-news/2018/aug/07/peter-dutton-greens-to-run-oxford-educated-lawyer-against-home-affairs-minister",
        "apiUrl": "https://content.guardianapis.com/australia-news/2018/aug/07/peter-dutton-greens-to-run-oxford-educated-lawyer-against-home-affairs-minister",
        "isHosted": false,
        "pillarId": "pillar/news",
        "pillarName": "News"
      },
      {
        "id": "sport/2018/aug/06/serena-williams-motherhood-tennis-post-partum",
        "type": "article",
        "sectionId": "sport",
        "sectionName": "Sport",
        "webPublicationDate": "2018-08-07T00:53:13Z",
        "webTitle": "'I felt I was not a good mom': Serena Williams details post-partum struggles",
        "webUrl": "https://www.theguardian.com/sport/2018/aug/06/serena-williams-motherhood-tennis-post-partum",
        "apiUrl": "https://content.guardianapis.com/sport/2018/aug/06/serena-williams-motherhood-tennis-post-partum",
        "isHosted": false,
        "pillarId": "pillar/sport",
        "pillarName": "Sport"
      },
      {
        "id": "global-development/2018/aug/07/deepika-mhatre-maid-turned-comedian-mocks-india-elite",
        "type": "article",
        "sectionId": "global-development",
        "sectionName": "Global development",
        "webPublicationDate": "2018-08-07T00:00:51Z",
        "webTitle": "'No madam can scare me': maid turned comedian mocks India's elite",
        "webUrl": "https://www.theguardian.com/global-development/2018/aug/07/deepika-mhatre-maid-turned-comedian-mocks-india-elite",
        "apiUrl": "https://content.guardianapis.com/global-development/2018/aug/07/deepika-mhatre-maid-turned-comedian-mocks-india-elite",
        "isHosted": false,
        "pillarId": "pillar/news",
        "pillarName": "News"
      },
      {
        "id": "business/2018/aug/07/weight-watchers-adds-1m-subscribers-in-a-year",
        "type": "article",
        "sectionId": "business",
        "sectionName": "Business",
        "webPublicationDate": "2018-08-06T23:07:53Z",
        "webTitle": "Weight Watchers adds 1m subscribers in a year",
        "webUrl": "https://www.theguardian.com/business/2018/aug/07/weight-watchers-adds-1m-subscribers-in-a-year",
        "apiUrl": "https://content.guardianapis.com/business/2018/aug/07/weight-watchers-adds-1m-subscribers-in-a-year",
        "isHosted": false,
        "pillarId": "pillar/news",
        "pillarName": "News"
      },
      {
        "id": "politics/2018/aug/07/uk-schools-silicon-valley-tech-industry-urged-foster-education-revolution",
        "type": "article",
        "sectionId": "politics",
        "sectionName": "Politics",
        "webPublicationDate": "2018-08-06T23:01:51Z",
        "webTitle": "UK schools and tech industry urged to foster education revolution",
        "webUrl": "https://www.theguardian.com/politics/2018/aug/07/uk-schools-silicon-valley-tech-industry-urged-foster-education-revolution",
        "apiUrl": "https://content.guardianapis.com/politics/2018/aug/07/uk-schools-silicon-valley-tech-industry-urged-foster-education-revolution",
        "isHosted": false,
        "pillarId": "pillar/news",
        "pillarName": "News"
      },
      {
        "id": "culture/2018/aug/07/bristol-bus-boycott-part-of-top-10-list-celebrating-protest-in-england",
        "type": "article",
        "sectionId": "culture",
        "sectionName": "Culture",
        "webPublicationDate": "2018-08-06T23:01:51Z",
        "webTitle": "Bristol bus boycott part of top 10 list celebrating protest in England",
        "webUrl": "https://www.theguardian.com/culture/2018/aug/07/bristol-bus-boycott-part-of-top-10-list-celebrating-protest-in-england",
        "apiUrl": "https://content.guardianapis.com/culture/2018/aug/07/bristol-bus-boycott-part-of-top-10-list-celebrating-protest-in-england",
        "isHosted": false,
        "pillarId": "pillar/arts",
        "pillarName": "Arts"
      }
    ]
  }
}
